<?xml version="1.0"?>
<robot xmlns:xacro="http://www.ros.org/wiki/xacro" name="lrauv">

<!-- Unless otherwise stated, ALL units must be SI units -->

<!-- ###################################################################### -->
<!-- Inertial parameters -->

<xacro:property name="lrauv_mass" value="200"/>

<!-- Center of Mass in +x = forward, +z = UP -->
<xacro:property name="lrauv_COM_xyz" value="0.0 0.0 0.0"/>

<!-- Moment of Inertia -->
<xacro:property name="lrauv_ixx" value="100"/>
<xacro:property name="lrauv_ixy" value="0"/>
<xacro:property name="lrauv_ixz" value="0"/>
<xacro:property name="lrauv_iyy" value="100"/>
<xacro:property name="lrauv_iyz" value="0"/>
<xacro:property name="lrauv_izz" value="100"/>

<!-- ###################################################################### -->
<!-- Buoyancy Parameters -->
<xacro:property name="lrauv_volume" value="1.0"/>

<!-- Center of Buoyancy in +x = forward, +z = UP -->
<xacro:property name="lrauv_COB_xyz" value="0.0 0.0 0.0"/>

</robot>

